{
  "success": {
    "2019-10-31T00:01:27-05:00-Fine For Now:Grizzly Bear": {
      "title": "Fine For Now",
      "artist": "Grizzly Bear",
      "album": "Veckatimest",
      "label": "Warp Records",
      "timestamp": "2019-10-31T00:01:27-05:00",
      "remote_id": "226068"
    },
    "2019-10-31T00:06:59-05:00-Look Away:Lissie": {
      "title": "Look Away",
      "artist": "Lissie",
      "album": "Catching A Tiger",
      "label": "Fat Possum",
      "timestamp": "2019-10-31T00:06:59-05:00",
      "remote_id": "226069"
    },
    "2019-10-31T00:11:29-05:00-Pitkin County Turnaround:Steve Martin": {
      "title": "Pitkin County Turnaround",
      "artist": "Steve Martin",
      "album": "The Crow (New Songs For The Five-String Banjo)",
      "label": "Rounder",
      "timestamp": "2019-10-31T00:11:29-05:00",
      "remote_id": "226070"
    },
    "2019-10-31T00:13:56-05:00-Merchant's Lunch:Austin Lounge Lizards": {
      "title": "Merchant's Lunch",
      "artist": "Austin Lounge Lizards",
      "album": "Strange Noises in the Dark",
      "label": "Blue Corn",
      "timestamp": "2019-10-31T00:13:56-05:00",
      "remote_id": "226071"
    },
    "2019-10-31T00:21:26-05:00-Changes, Circles Spinning:Moby Grape": {
      "title": "Changes, Circles Spinning",
      "artist": "Moby Grape",
      "album": "Listen My Friends! The Best of Moby Grape",
      "label": "Columbia Legacy",
      "timestamp": "2019-10-31T00:21:26-05:00",
      "remote_id": "226072"
    },
    "2019-10-31T00:23:54-05:00-Ain't Gonna Rain:Austin Lounge Lizards": {
      "title": "Ain't Gonna Rain",
      "artist": "Austin Lounge Lizards",
      "album": "The Drugs I Need",
      "label": "Blue Corn",
      "timestamp": "2019-10-31T00:23:54-05:00",
      "remote_id": "226073"
    },
    "2019-10-31T00:26:22-05:00-Bitter Wind (Version One):Moby Grape": {
      "title": "Bitter Wind (Version One)",
      "artist": "Moby Grape",
      "album": "Listen My Friends! The Best of Moby Grape",
      "label": "Columbia Legacy",
      "timestamp": "2019-10-31T00:26:22-05:00",
      "remote_id": "226074"
    },
    "2019-10-31T00:40:11-05:00-Low Lights of Town:Butch Hancock": {
      "title": "Low Lights of Town",
      "artist": "Butch Hancock",
      "album": "You Coulda Walked Around the World",
      "label": "Rainlight Records",
      "timestamp": "2019-10-31T00:40:11-05:00",
      "remote_id": "226075"
    },
    "2019-10-31T00:43:59-05:00-Baby Elephant Walk:The Skatalites": {
      "title": "Baby Elephant Walk",
      "artist": "The Skatalites",
      "album": "Skatalites & Friends at Randy's",
      "label": "VP Records",
      "timestamp": "2019-10-31T00:43:59-05:00",
      "remote_id": "226076"
    },
    "2019-10-31T00:49:33-05:00-Neph:Trombone Shorty": {
      "title": "Neph",
      "artist": "Trombone Shorty",
      "album": "Backatown",
      "label": "Verve Forecast",
      "timestamp": "2019-10-31T00:49:33-05:00",
      "remote_id": "226077"
    },
    "2019-10-31T00:52:36-05:00-Slim Chance:Todd Snider": {
      "title": "Slim Chance",
      "artist": "Todd Snider",
      "album": "The Excitement Plan",
      "label": "Yep Roc",
      "timestamp": "2019-10-31T00:52:36-05:00",
      "remote_id": "226078"
    },
    "2019-10-31T00:57:58-05:00-Da Doo Ron Ron:The Donnas": {
      "title": "Da Doo Ron Ron",
      "artist": "The Donnas",
      "album": "The Donnas",
      "label": "Lookout! Records",
      "timestamp": "2019-10-31T00:57:58-05:00",
      "remote_id": "226079"
    },
    "2019-10-31T01:07:03-05:00-Little Lovin':Lissie": {
      "title": "Little Lovin'",
      "artist": "Lissie",
      "album": "Catching A Tiger",
      "label": "Fat Possum",
      "timestamp": "2019-10-31T01:07:03-05:00",
      "remote_id": "226080"
    },
    "2019-10-31T01:11:32-05:00-Clawhammer Medley:Steve Martin": {
      "title": "Clawhammer Medley",
      "artist": "Steve Martin",
      "album": "The Crow (New Songs For The Five-String Banjo)",
      "label": "Rounder",
      "timestamp": "2019-10-31T01:11:32-05:00",
      "remote_id": "226081"
    },
    "2019-10-31T01:13:49-05:00-When I'm Cleanin' Windows:Austin Lounge Lizards": {
      "title": "When I'm Cleanin' Windows",
      "artist": "Austin Lounge Lizards",
      "album": "Strange Noises in the Dark",
      "label": "Blue Corn",
      "timestamp": "2019-10-31T01:13:49-05:00",
      "remote_id": "226082"
    },
    "2019-10-31T01:19:35-05:00-The Suburbs:Arcade Fire": {
      "title": "The Suburbs",
      "artist": "Arcade Fire",
      "album": "\"The Suburbs\"",
      "label": "Merge Records",
      "timestamp": "2019-10-31T01:19:35-05:00",
      "remote_id": "226083"
    },
    "2019-10-31T01:24:50-05:00-Que Sera Sera:Dave Alvin & The Guilty Women": {
      "title": "Que Sera Sera",
      "artist": "Dave Alvin & The Guilty Women",
      "album": "Dave Alvin & The Guilty Women",
      "label": "Yep Roc Records",
      "timestamp": "2019-10-31T01:24:50-05:00",
      "remote_id": "226084"
    },
    "2019-10-31T01:29:34-05:00-Miniature Day Parade:Brass Bed": {
      "title": "Miniature Day Parade",
      "artist": "Brass Bed",
      "album": "Good Danny's Good Friends Vol. 1",
      "label": "Self Released",
      "timestamp": "2019-10-31T01:29:34-05:00",
      "remote_id": "226085"
    },
    "2019-10-31T01:33:11-05:00-When They Fight They Fight:Generationals": {
      "title": "When They Fight They Fight",
      "artist": "Generationals",
      "album": "Con Law",
      "label": "Park The Van",
      "timestamp": "2019-10-31T01:33:11-05:00",
      "remote_id": "226086"
    },
    "2019-10-31T01:36:31-05:00-Ready to Start:Arcade Fire": {
      "title": "Ready to Start",
      "artist": "Arcade Fire",
      "album": "\"The Suburbs\"",
      "label": "Merge Records",
      "timestamp": "2019-10-31T01:36:31-05:00",
      "remote_id": "226087"
    },
    "2019-10-31T01:40:47-05:00-If The Shoe Fits:Hank Williams III": {
      "title": "If The Shoe Fits",
      "artist": "Hank Williams III",
      "album": "Hank Williams III - Risin' Outlaw",
      "label": "Curb Records",
      "timestamp": "2019-10-31T01:40:47-05:00",
      "remote_id": "226088"
    },
    "2019-10-31T01:43:42-05:00-Strange Noises in the Dark:Austin Lounge Lizards": {
      "title": "Strange Noises in the Dark",
      "artist": "Austin Lounge Lizards",
      "album": "Strange Noises in the Dark",
      "label": "Blue Corn",
      "timestamp": "2019-10-31T01:43:42-05:00",
      "remote_id": "226089"
    },
    "2019-10-31T01:48:14-05:00-Love Me:She Wants Revenge": {
      "title": "Love Me",
      "artist": "She Wants Revenge",
      "album": "Up and Down",
      "label": "Perfect Kiss",
      "timestamp": "2019-10-31T01:48:14-05:00",
      "remote_id": "226090"
    },
    "2019-10-31T01:52:29-05:00-Summertime:John Coltrane": {
      "title": "Summertime",
      "artist": "John Coltrane",
      "album": "My Favorite Things",
      "label": "Atlantic",
      "timestamp": "2019-10-31T01:52:29-05:00",
      "remote_id": "226091"
    },
    "2019-10-31T02:04:09-05:00-West Coast Love Song:Amy Cook": {
      "title": "West Coast Love Song",
      "artist": "Amy Cook",
      "album": "Let The Light In",
      "label": "Root House Records",
      "timestamp": "2019-10-31T02:04:09-05:00",
      "remote_id": "226092"
    },
    "2019-10-31T02:07:09-05:00-Prelude:Adam Ahrens": {
      "title": "Prelude",
      "artist": "Adam Ahrens",
      "album": "Prizefight",
      "label": "Self Released",
      "timestamp": "2019-10-31T02:07:09-05:00",
      "remote_id": "226093"
    },
    "2019-10-31T02:08:13-05:00-Hello Mother:The Skatalites": {
      "title": "Hello Mother",
      "artist": "The Skatalites",
      "album": "Skatalites & Friends at Randy's",
      "label": "VP Records",
      "timestamp": "2019-10-31T02:08:13-05:00",
      "remote_id": "226094"
    },
    "2019-10-31T02:10:46-05:00-River Road:Crooks": {
      "title": "River Road",
      "artist": "Crooks",
      "album": "Lonesome, Rowdy and Restless",
      "label": "Self Released",
      "timestamp": "2019-10-31T02:10:46-05:00",
      "remote_id": "226095"
    },
    "2019-10-31T02:19:58-05:00-Bye An' Bye:Eddie Condon & His All Stars": {
      "title": "Bye An' Bye",
      "artist": "Eddie Condon & His All Stars",
      "album": "Happy Birthday Newport Disc 1",
      "label": "Columbia/Legacy",
      "timestamp": "2019-10-31T02:19:58-05:00",
      "remote_id": "226096"
    },
    "2019-10-31T02:25:19-05:00-When The Levee Breaks:Bonerama": {
      "title": "When The Levee Breaks",
      "artist": "Bonerama",
      "album": "Hard Times",
      "label": "High Steppin' Productions",
      "timestamp": "2019-10-31T02:25:19-05:00",
      "remote_id": "226097"
    },
    "2019-10-31T02:39:06-05:00-Susie Rosen's Nose:Austin Lounge Lizards": {
      "title": "Susie Rosen's Nose",
      "artist": "Austin Lounge Lizards",
      "album": "Strange Noises in the Dark",
      "label": "Blue Corn",
      "timestamp": "2019-10-31T02:39:06-05:00",
      "remote_id": "226098"
    },
    "2019-10-31T02:41:39-05:00-Thunderstorms & Neon Signs:Hank Williams III": {
      "title": "Thunderstorms & Neon Signs",
      "artist": "Hank Williams III",
      "album": "Hank Williams III - Risin' Outlaw",
      "label": "Curb Records",
      "timestamp": "2019-10-31T02:41:39-05:00",
      "remote_id": "226099"
    },
    "2019-10-31T02:46:09-05:00-Cheerleader:Grizzly Bear": {
      "title": "Cheerleader",
      "artist": "Grizzly Bear",
      "album": "Veckatimest",
      "label": "Warp Records",
      "timestamp": "2019-10-31T02:46:09-05:00",
      "remote_id": "226100"
    },
    "2019-10-31T02:51:04-05:00-Stranger:Lissie": {
      "title": "Stranger",
      "artist": "Lissie",
      "album": "Catching A Tiger",
      "label": "Fat Possum",
      "timestamp": "2019-10-31T02:51:04-05:00",
      "remote_id": "226101"
    },
    "2019-10-31T02:54:12-05:00-Doll Face:Todd Snider": {
      "title": "Doll Face",
      "artist": "Todd Snider",
      "album": "The Excitement Plan",
      "label": "Yep Roc",
      "timestamp": "2019-10-31T02:54:12-05:00",
      "remote_id": "226102"
    },
    "2019-10-31T02:56:47-05:00-Queen:The Octopus Project": {
      "title": "Queen",
      "artist": "The Octopus Project",
      "album": "Hello, Avalanche",
      "label": "Peek-A-Boo",
      "timestamp": "2019-10-31T02:56:47-05:00",
      "remote_id": "226103"
    },
    "2019-10-31T02:59:13-05:00-Oh Mississippi:Lissie": {
      "title": "Oh Mississippi",
      "artist": "Lissie",
      "album": "Catching A Tiger",
      "label": "Fat Possum",
      "timestamp": "2019-10-31T02:59:13-05:00",
      "remote_id": "226104"
    },
    "2019-10-31T03:07:39-05:00-Archer:Suzanna Choffel": {
      "title": "Archer",
      "artist": "Suzanna Choffel",
      "album": "Good Danny's Good Friends Vol. 1",
      "label": "Self Released",
      "timestamp": "2019-10-31T03:07:39-05:00",
      "remote_id": "226105"
    },
    "2019-10-31T03:11:35-05:00-Lonesome For You:Hank Williams III": {
      "title": "Lonesome For You",
      "artist": "Hank Williams III",
      "album": "Hank Williams III - Risin' Outlaw",
      "label": "Curb Records",
      "timestamp": "2019-10-31T03:11:35-05:00",
      "remote_id": "226106"
    },
    "2019-10-31T03:14:52-05:00-You Can Eat Dog Food:Austin Lounge Lizards": {
      "title": "You Can Eat Dog Food",
      "artist": "Austin Lounge Lizards",
      "album": "Strange Noises in the Dark",
      "label": "Blue Corn",
      "timestamp": "2019-10-31T03:14:52-05:00",
      "remote_id": "226107"
    },
    "2019-10-31T03:22:25-05:00-One Good Time:Butch Hancock": {
      "title": "One Good Time",
      "artist": "Butch Hancock",
      "album": "You Coulda Walked Around the World",
      "label": "Rainlight Records",
      "timestamp": "2019-10-31T03:22:25-05:00",
      "remote_id": "226108"
    },
    "2019-10-31T03:28:19-05:00-Neighbor Of The Beast:Austin Lounge Lizards": {
      "title": "Neighbor Of The Beast",
      "artist": "Austin Lounge Lizards",
      "album": "The Drugs I Need",
      "label": "Blue Corn",
      "timestamp": "2019-10-31T03:28:19-05:00",
      "remote_id": "226109"
    },
    "2019-10-31T03:35:00-05:00-I'm Gonna Make It Better:She & Him": {
      "title": "I'm Gonna Make It Better",
      "artist": "She & Him",
      "album": "Volume Two",
      "label": "Merge Records",
      "timestamp": "2019-10-31T03:35:00-05:00",
      "remote_id": "226110"
    },
    "2019-10-31T03:38:32-05:00-The Skatalites - Addis Abba:Various": {
      "title": "The Skatalites - Addis Abba",
      "artist": "Various",
      "album": "Studio One Ska",
      "label": "Soul Jazz Records",
      "timestamp": "2019-10-31T03:38:32-05:00",
      "remote_id": "226111"
    },
    "2019-10-31T03:40:59-05:00-Improvvisamente:Mina": {
      "title": "Improvvisamente",
      "artist": "Mina",
      "album": "Briciole di baci",
      "label": "Replay Music",
      "timestamp": "2019-10-31T03:40:59-05:00",
      "remote_id": "226112"
    },
    "2019-10-31T03:44:10-05:00-Exterior Street Day:Generationals": {
      "title": "Exterior Street Day",
      "artist": "Generationals",
      "album": "Con Law",
      "label": "Park The Van",
      "timestamp": "2019-10-31T03:44:10-05:00",
      "remote_id": "226113"
    },
    "2019-10-31T03:48:21-05:00-Mescaline:Amy Cook": {
      "title": "Mescaline",
      "artist": "Amy Cook",
      "album": "Let The Light In",
      "label": "Root House Records",
      "timestamp": "2019-10-31T03:48:21-05:00",
      "remote_id": "226114"
    },
    "2019-10-31T03:53:32-05:00-In The Sun:Blondie": {
      "title": "In The Sun",
      "artist": "Blondie",
      "album": "Blondie",
      "label": "Chrysalis",
      "timestamp": "2019-10-31T03:53:32-05:00",
      "remote_id": "226115"
    },
    "2019-10-31T03:56:12-05:00-Pretty Flowers:Steve Martin": {
      "title": "Pretty Flowers",
      "artist": "Steve Martin",
      "album": "The Crow (New Songs For The Five-String Banjo)",
      "label": "Rounder",
      "timestamp": "2019-10-31T03:56:12-05:00",
      "remote_id": "226116"
    },
    "2019-10-31T03:58:55-05:00-Animal Attraction:She Wants Revenge": {
      "title": "Animal Attraction",
      "artist": "She Wants Revenge",
      "album": "Up and Down",
      "label": "Perfect Kiss",
      "timestamp": "2019-10-31T03:58:55-05:00",
      "remote_id": "226117"
    },
    "2019-10-31T04:02:39-05:00-Stripper Sunset:Harlem": {
      "title": "Stripper Sunset",
      "artist": "Harlem",
      "album": "Hippies",
      "label": "Matador",
      "timestamp": "2019-10-31T04:02:39-05:00",
      "remote_id": "226118"
    },
    "2019-10-31T04:04:29-05:00-Kung Fu Girls:Blondie": {
      "title": "Kung Fu Girls",
      "artist": "Blondie",
      "album": "Blondie",
      "label": "Chrysalis",
      "timestamp": "2019-10-31T04:04:29-05:00",
      "remote_id": "226119"
    },
    "2019-10-31T04:07:02-05:00-Honky Tonk Girls:Hank Williams III": {
      "title": "Honky Tonk Girls",
      "artist": "Hank Williams III",
      "album": "Hank Williams III - Risin' Outlaw",
      "label": "Curb Records",
      "timestamp": "2019-10-31T04:07:02-05:00",
      "remote_id": "226120"
    },
    "2019-10-31T04:09:45-05:00-On Your Way Down:Trombone Shorty": {
      "title": "On Your Way Down",
      "artist": "Trombone Shorty",
      "album": "Backatown",
      "label": "Verve Forecast",
      "timestamp": "2019-10-31T04:09:45-05:00",
      "remote_id": "226121"
    },
    "2019-10-31T04:17:30-05:00-An Evening With Rthrtha:The Octopus Project": {
      "title": "An Evening With Rthrtha",
      "artist": "The Octopus Project",
      "album": "Hello, Avalanche",
      "label": "Peek-A-Boo",
      "timestamp": "2019-10-31T04:17:30-05:00",
      "remote_id": "226122"
    },
    "2019-10-31T04:20:47-05:00-Ain't That A Shame:Moby Grape": {
      "title": "Ain't That A Shame",
      "artist": "Moby Grape",
      "album": "Listen My Friends! The Best of Moby Grape",
      "label": "Columbia Legacy",
      "timestamp": "2019-10-31T04:20:47-05:00",
      "remote_id": "226123"
    },
    "2019-10-31T04:23:19-05:00-Banjo Pickers In Heaven:Austin Lounge Lizards": {
      "title": "Banjo Pickers In Heaven",
      "artist": "Austin Lounge Lizards",
      "album": "The Drugs I Need",
      "label": "Blue Corn",
      "timestamp": "2019-10-31T04:23:19-05:00",
      "remote_id": "226124"
    },
    "2019-10-31T04:25:54-05:00-For Stu:The Barry Altschul Quartet": {
      "title": "For Stu",
      "artist": "The Barry Altschul Quartet",
      "album": "For Stu",
      "label": "Soul Note",
      "timestamp": "2019-10-31T04:25:54-05:00",
      "remote_id": "226125"
    },
    "2019-10-31T04:37:18-05:00-No One in the World:The Apples in Stereo": {
      "title": "No One in the World",
      "artist": "The Apples in Stereo",
      "album": "Travellers in Space and Time",
      "label": "Yep Roc Records",
      "timestamp": "2019-10-31T04:37:18-05:00",
      "remote_id": "226126"
    },
    "2019-10-31T04:41:35-05:00-Twist The Knife:Neko Case & Her Boyfriends": {
      "title": "Twist The Knife",
      "artist": "Neko Case & Her Boyfriends",
      "album": "Furnace Room Lullaby",
      "label": "Bloodshot Records",
      "timestamp": "2019-10-31T04:41:35-05:00",
      "remote_id": "226127"
    },
    "2019-10-31T04:44:09-05:00-Ska Beat:Alton Ellis": {
      "title": "Ska Beat",
      "artist": "Alton Ellis",
      "album": "Skatalites & Friends at Randy's",
      "label": "VP Records",
      "timestamp": "2019-10-31T04:44:09-05:00",
      "remote_id": "226128"
    },
    "2019-10-31T04:51:06-05:00-An Ugly Death:Jay Reatard": {
      "title": "An Ugly Death",
      "artist": "Jay Reatard",
      "album": "Matador Singles '08",
      "label": "Matador Records",
      "timestamp": "2019-10-31T04:51:06-05:00",
      "remote_id": "226129"
    },
    "2019-10-31T04:54:48-05:00-Collie Bud:The Skatalites": {
      "title": "Collie Bud",
      "artist": "The Skatalites",
      "album": "Skatalites & Friends at Randy's",
      "label": "VP Records",
      "timestamp": "2019-10-31T04:54:48-05:00",
      "remote_id": "226130"
    },
    "2019-10-31T04:57:26-05:00-No Mother In This World:Flatt & Scruggs": {
      "title": "No Mother In This World",
      "artist": "Flatt & Scruggs",
      "album": "Blue Ridge Cabin Home",
      "label": "CBS Special Products",
      "timestamp": "2019-10-31T04:57:26-05:00",
      "remote_id": "226131"
    },
    "2019-10-31T05:00:21-05:00-No Doubt About It:Flatt & Scruggs": {
      "title": "No Doubt About It",
      "artist": "Flatt & Scruggs",
      "album": "Blue Ridge Cabin Home",
      "label": "CBS Special Products",
      "timestamp": "2019-10-31T05:00:21-05:00",
      "remote_id": "226132"
    },
    "2019-10-31T05:02:51-05:00-We Used to Wait:Arcade Fire": {
      "title": "We Used to Wait",
      "artist": "Arcade Fire",
      "album": "\"The Suburbs\"",
      "label": "Merge Records",
      "timestamp": "2019-10-31T05:02:51-05:00",
      "remote_id": "226133"
    },
    "2019-10-31T05:07:53-05:00-Gone:Black Smokers": {
      "title": "Gone",
      "artist": "Black Smokers",
      "album": "Used",
      "label": "Pravda",
      "timestamp": "2019-10-31T05:07:53-05:00",
      "remote_id": "226134"
    },
    "2019-10-31T05:10:51-05:00-Floating in Space:The Apples in Stereo": {
      "title": "Floating in Space",
      "artist": "The Apples in Stereo",
      "album": "Travellers in Space and Time",
      "label": "Yep Roc Records",
      "timestamp": "2019-10-31T05:10:51-05:00",
      "remote_id": "226135"
    },
    "2019-10-31T05:13:32-05:00-It Keeps You Up:Generationals": {
      "title": "It Keeps You Up",
      "artist": "Generationals",
      "album": "Con Law",
      "label": "Park The Van",
      "timestamp": "2019-10-31T05:13:32-05:00",
      "remote_id": "226136"
    },
    "2019-10-31T05:16:34-05:00-Strange Solar System:The Apples in Stereo": {
      "title": "Strange Solar System",
      "artist": "The Apples in Stereo",
      "album": "Travellers in Space and Time",
      "label": "Yep Roc Records",
      "timestamp": "2019-10-31T05:16:34-05:00",
      "remote_id": "226137"
    },
    "2019-10-31T05:17:33-05:00-Worried About:Lissie": {
      "title": "Worried About",
      "artist": "Lissie",
      "album": "Catching A Tiger",
      "label": "Fat Possum",
      "timestamp": "2019-10-31T05:17:33-05:00",
      "remote_id": "226138"
    },
    "2019-10-31T05:22:00-05:00-Freddie's Lilt:Steve Martin": {
      "title": "Freddie's Lilt",
      "artist": "Steve Martin",
      "album": "The Crow (New Songs For The Five-String Banjo)",
      "label": "Rounder",
      "timestamp": "2019-10-31T05:22:00-05:00",
      "remote_id": "226139"
    },
    "2019-10-31T05:24:56-05:00-We're All Goning To Die:The Bubbles": {
      "title": "We're All Goning To Die",
      "artist": "The Bubbles",
      "album": "Good Danny's Good Friends Vol. 1",
      "label": "Self Released",
      "timestamp": "2019-10-31T05:24:56-05:00",
      "remote_id": "226140"
    },
    "2019-10-31T05:28:35-05:00-Good Morning Heartache:Ella Fitzgerald": {
      "title": "Good Morning Heartache",
      "artist": "Ella Fitzgerald",
      "album": "Happy Birthday Newport! 50 Swinging Years",
      "label": "Columbia/Legacy",
      "timestamp": "2019-10-31T05:28:35-05:00",
      "remote_id": "226141"
    },
    "2019-10-31T05:42:53-05:00-The Crow:Steve Martin": {
      "title": "The Crow",
      "artist": "Steve Martin",
      "album": "The Crow (New Songs For The Five-String Banjo)",
      "label": "Rounder",
      "timestamp": "2019-10-31T05:42:53-05:00",
      "remote_id": "226142"
    },
    "2019-10-31T05:49:12-05:00-Hiding Hole:Jay Reatard": {
      "title": "Hiding Hole",
      "artist": "Jay Reatard",
      "album": "Matador Singles '08",
      "label": "Matador Records",
      "timestamp": "2019-10-31T05:49:12-05:00",
      "remote_id": "226143"
    },
    "2019-10-31T05:50:46-05:00-Race:Pigeons": {
      "title": "Race",
      "artist": "Pigeons",
      "album": "Liasons",
      "label": "Soft Abuse",
      "timestamp": "2019-10-31T05:50:46-05:00",
      "remote_id": "226144"
    },
    "2019-10-31T05:54:22-05:00-Vanishing Lessons:The Octopus Project": {
      "title": "Vanishing Lessons",
      "artist": "The Octopus Project",
      "album": "Hello, Avalanche",
      "label": "Peek-A-Boo",
      "timestamp": "2019-10-31T05:54:22-05:00",
      "remote_id": "226145"
    },
    "2019-10-31T05:57:40-05:00-Quiet As Kept:Trombone Shorty": {
      "title": "Quiet As Kept",
      "artist": "Trombone Shorty",
      "album": "Backatown",
      "label": "Verve Forecast",
      "timestamp": "2019-10-31T05:57:40-05:00",
      "remote_id": "226146"
    },
    "2019-10-31T06:00:48-05:00-On My Mind:Flatt & Scruggs": {
      "title": "On My Mind",
      "artist": "Flatt & Scruggs",
      "album": "Blue Ridge Cabin Home",
      "label": "CBS Special Products",
      "timestamp": "2019-10-31T06:00:48-05:00",
      "remote_id": "226147"
    },
    "2019-10-31T06:03:38-05:00-Furnace Room Lullaby:Neko Case & Her Boyfriends": {
      "title": "Furnace Room Lullaby",
      "artist": "Neko Case & Her Boyfriends",
      "album": "Furnace Room Lullaby",
      "label": "Bloodshot Records",
      "timestamp": "2019-10-31T06:03:38-05:00",
      "remote_id": "226148"
    },
    "2019-10-31T06:06:32-05:00-America's Favorite Pastime:Todd Snider": {
      "title": "America's Favorite Pastime",
      "artist": "Todd Snider",
      "album": "The Excitement Plan",
      "label": "Yep Roc",
      "timestamp": "2019-10-31T06:06:32-05:00",
      "remote_id": "226149"
    },
    "2019-10-31T06:09:43-05:00-Le tue mani:Mina": {
      "title": "Le tue mani",
      "artist": "Mina",
      "album": "Briciole di baci",
      "label": "Replay Music",
      "timestamp": "2019-10-31T06:09:43-05:00",
      "remote_id": "226150"
    },
    "2019-10-31T06:13:34-05:00-Let Those Brown Eyes Smile at Me:Flatt & Scruggs": {
      "title": "Let Those Brown Eyes Smile at Me",
      "artist": "Flatt & Scruggs",
      "album": "Blue Ridge Cabin Home",
      "label": "CBS Special Products",
      "timestamp": "2019-10-31T06:13:34-05:00",
      "remote_id": "226151"
    },
    "2019-10-31T06:16:11-05:00-This Tornado Loves You:Neko Case": {
      "title": "This Tornado Loves You",
      "artist": "Neko Case",
      "album": "Middle Cyclone",
      "label": "Epitaph",
      "timestamp": "2019-10-31T06:16:11-05:00",
      "remote_id": "226152"
    },
    "2019-10-31T06:19:32-05:00-High School Yum Yum:The Donnas": {
      "title": "High School Yum Yum",
      "artist": "The Donnas",
      "album": "The Donnas",
      "label": "Lookout! Records",
      "timestamp": "2019-10-31T06:19:32-05:00",
      "remote_id": "226153"
    },
    "2019-10-31T06:20:59-05:00-Out of touch:Lucinda Williams": {
      "title": "Out of touch",
      "artist": "Lucinda Williams",
      "album": "Essence",
      "label": "Lost Highway Records",
      "timestamp": "2019-10-31T06:20:59-05:00",
      "remote_id": "226154"
    },
    "2019-10-31T06:26:30-05:00-Spanish Key:Miles Davis": {
      "title": "Spanish Key",
      "artist": "Miles Davis",
      "album": "Bitches Brew - 40th Anniversary Legacy Edition]",
      "label": "Sony/Columbia",
      "timestamp": "2019-10-31T06:26:30-05:00",
      "remote_id": "226155"
    },
    "2019-10-31T06:54:19-05:00-Gay Human Bones:Harlem": {
      "title": "Gay Human Bones",
      "artist": "Harlem",
      "album": "Hippies",
      "label": "Matador",
      "timestamp": "2019-10-31T06:54:19-05:00",
      "remote_id": "226156"
    },
    "2019-10-31T06:57:51-05:00-Spanish Key:Miles Davis": {
      "title": "Spanish Key",
      "artist": "Miles Davis",
      "album": "Bitches Brew - 40th Anniversary Legacy Edition",
      "label": "Sony/Columbia",
      "timestamp": "2019-10-31T06:57:51-05:00",
      "remote_id": "226157"
    },
    "2019-10-31T07:05:57-05:00-Mood To Burn Bridges:Neko Case & Her Boyfriends": {
      "title": "Mood To Burn Bridges",
      "artist": "Neko Case & Her Boyfriends",
      "album": "Furnace Room Lullaby",
      "label": "Bloodshot Records",
      "timestamp": "2019-10-31T07:05:57-05:00",
      "remote_id": "226158"
    },
    "2019-10-31T07:08:51-05:00-Daddy Played The Banjo:Steve Martin": {
      "title": "Daddy Played The Banjo",
      "artist": "Steve Martin",
      "album": "The Crow (New Songs For The Five-String Banjo)",
      "label": "Rounder",
      "timestamp": "2019-10-31T07:08:51-05:00",
      "remote_id": "226159"
    },
    "2019-10-31T07:12:11-05:00-Drone To Sleep:The Boxing Lesson": {
      "title": "Drone To Sleep",
      "artist": "The Boxing Lesson",
      "album": "Good Danny's Good Friends Vol. 1",
      "label": "Self Released",
      "timestamp": "2019-10-31T07:12:11-05:00",
      "remote_id": "226160"
    },
    "2019-10-31T07:18:27-05:00-Ready, Able:Grizzly Bear": {
      "title": "Ready, Able",
      "artist": "Grizzly Bear",
      "album": "Veckatimest",
      "label": "Warp Records",
      "timestamp": "2019-10-31T07:18:27-05:00",
      "remote_id": "226161"
    },
    "2019-10-31T07:22:44-05:00-Seeing:Moby Grape": {
      "title": "Seeing",
      "artist": "Moby Grape",
      "album": "Listen My Friends! The Best of Moby Grape",
      "label": "Columbia Legacy",
      "timestamp": "2019-10-31T07:22:44-05:00",
      "remote_id": "226162"
    },
    "2019-10-31T07:26:32-05:00-Notturno OP. 69:Black Smokers": {
      "title": "Notturno OP. 69",
      "artist": "Black Smokers",
      "album": "Used",
      "label": "Pravda",
      "timestamp": "2019-10-31T07:26:32-05:00",
      "remote_id": "226163"
    },
    "2019-10-31T07:28:18-05:00-Barefoot Prints:Butch Hancock": {
      "title": "Barefoot Prints",
      "artist": "Butch Hancock",
      "album": "You Coulda Walked Around the World",
      "label": "Rainlight Records",
      "timestamp": "2019-10-31T07:28:18-05:00",
      "remote_id": "226164"
    },
    "2019-10-31T07:32:04-05:00-Bobby Beale:Generationals": {
      "title": "Bobby Beale",
      "artist": "Generationals",
      "album": "Con Law",
      "label": "Park The Van",
      "timestamp": "2019-10-31T07:32:04-05:00",
      "remote_id": "226165"
    },
    "2019-10-31T07:35:24-05:00-Eager To Sail:Wine And Revolution": {
      "title": "Eager To Sail",
      "artist": "Wine And Revolution",
      "album": "Edward The Magnificent",
      "label": "Self Released",
      "timestamp": "2019-10-31T07:35:24-05:00",
      "remote_id": "226166"
    },
    "2019-10-31T07:38:22-05:00-Unorganized Crime:Todd Snider": {
      "title": "Unorganized Crime",
      "artist": "Todd Snider",
      "album": "The Excitement Plan",
      "label": "Yep Roc",
      "timestamp": "2019-10-31T07:38:22-05:00",
      "remote_id": "226167"
    },
    "2019-10-31T07:41:42-05:00-Somethin'  Else:Cannonball  Adderley": {
      "title": "Somethin'  Else",
      "artist": "Cannonball  Adderley",
      "album": "Somethin' Else",
      "label": "Blue Note",
      "timestamp": "2019-10-31T07:41:42-05:00",
      "remote_id": "226168"
    },
    "2019-10-31T07:50:09-05:00-Ghost Moves:The Octopus Project": {
      "title": "Ghost Moves",
      "artist": "The Octopus Project",
      "album": "Hello, Avalanche",
      "label": "Peek-A-Boo",
      "timestamp": "2019-10-31T07:50:09-05:00",
      "remote_id": "226169"
    },
    "2019-10-31T07:53:41-05:00-I Found Love On The Highway:Mr. Lewis And The Funeral 5": {
      "title": "I Found Love On The Highway",
      "artist": "Mr. Lewis And The Funeral 5",
      "album": "Good Danny's Good Friends Vol. 1",
      "label": "Self Released",
      "timestamp": "2019-10-31T07:53:41-05:00",
      "remote_id": "226170"
    },
    "2019-10-31T07:59:25-05:00-Blue Devil:Hank Williams III": {
      "title": "Blue Devil",
      "artist": "Hank Williams III",
      "album": "Hank Williams III - Risin' Outlaw",
      "label": "Curb Records",
      "timestamp": "2019-10-31T07:59:25-05:00",
      "remote_id": "226171"
    },
    "2019-10-31T08:05:14-05:00-X Offender:Blondie": {
      "title": "X Offender",
      "artist": "Blondie",
      "album": "Blondie",
      "label": "Chrysalis",
      "timestamp": "2019-10-31T08:05:14-05:00",
      "remote_id": "226172"
    },
    "2019-10-31T08:08:29-05:00-Foggy Days:Black Smokers": {
      "title": "Foggy Days",
      "artist": "Black Smokers",
      "album": "Used",
      "label": "Pravda",
      "timestamp": "2019-10-31T08:08:29-05:00",
      "remote_id": "226173"
    },
    "2019-10-31T08:14:26-05:00-In The 6th:Trombone Shorty": {
      "title": "In The 6th",
      "artist": "Trombone Shorty",
      "album": "Backatown",
      "label": "Verve Forecast",
      "timestamp": "2019-10-31T08:14:26-05:00",
      "remote_id": "226174"
    },
    "2019-10-31T08:17:51-05:00-Faces In The Dark:Generationals": {
      "title": "Faces In The Dark",
      "artist": "Generationals",
      "album": "Con Law",
      "label": "Park The Van",
      "timestamp": "2019-10-31T08:17:51-05:00",
      "remote_id": "226175"
    },
    "2019-10-31T08:21:37-05:00-Indifference:Moby Grape": {
      "title": "Indifference",
      "artist": "Moby Grape",
      "album": "Listen My Friends! The Best of Moby Grape",
      "label": "Columbia Legacy",
      "timestamp": "2019-10-31T08:21:37-05:00",
      "remote_id": "226176"
    },
    "2019-10-31T08:25:53-05:00-The Great Escape:Ian Hunter": {
      "title": "The Great Escape",
      "artist": "Ian Hunter",
      "album": "Man Overboard",
      "label": "New West Records",
      "timestamp": "2019-10-31T08:25:53-05:00",
      "remote_id": "226177"
    },
    "2019-10-31T08:34:24-05:00-But Not For Me:John Coltrane": {
      "title": "But Not For Me",
      "artist": "John Coltrane",
      "album": "My Favorite Things",
      "label": "Atlantic",
      "timestamp": "2019-10-31T08:34:24-05:00",
      "remote_id": "226178"
    },
    "2019-10-31T08:43:59-05:00-Good Fortune:Todd Snider": {
      "title": "Good Fortune",
      "artist": "Todd Snider",
      "album": "The Excitement Plan",
      "label": "Yep Roc",
      "timestamp": "2019-10-31T08:43:59-05:00",
      "remote_id": "226179"
    },
    "2019-10-31T08:49:50-05:00-Maverick: A Love Song:Austin Lounge Lizards": {
      "title": "Maverick: A Love Song",
      "artist": "Austin Lounge Lizards",
      "album": "Strange Noises in the Dark",
      "label": "Blue Corn",
      "timestamp": "2019-10-31T08:49:50-05:00",
      "remote_id": "226180"
    },
    "2019-10-31T08:52:46-05:00-Wine Do Yer Stuff:Commander Cody": {
      "title": "Wine Do Yer Stuff",
      "artist": "Commander Cody",
      "album": "Dopers, Drunks And Everyday Losers",
      "label": "Blind Pig Records",
      "timestamp": "2019-10-31T08:52:46-05:00",
      "remote_id": "226181"
    },
    "2019-10-31T08:55:32-05:00-Moonrise:Amy Cook": {
      "title": "Moonrise",
      "artist": "Amy Cook",
      "album": "Let The Light In",
      "label": "Root House Records",
      "timestamp": "2019-10-31T08:55:32-05:00",
      "remote_id": "226182"
    },
    "2019-10-31T08:59:44-05:00-Fallin':Trombone Shorty": {
      "title": "Fallin'",
      "artist": "Trombone Shorty",
      "album": "Backatown",
      "label": "Verve Forecast",
      "timestamp": "2019-10-31T08:59:44-05:00",
      "remote_id": "226183"
    },
    "2019-10-31T19:06:15-05:00-Un tale:Mina": {
      "title": "Un tale",
      "artist": "Mina",
      "album": "Briciole di baci",
      "label": "Replay Music",
      "timestamp": "2019-10-31T19:06:15-05:00",
      "remote_id": "226184"
    },
    "2019-10-31T19:09:38-05:00-Roland Alphonso - Scambelena:Various": {
      "title": "Roland Alphonso - Scambelena",
      "artist": "Various",
      "album": "Studio One Ska",
      "label": "Soul Jazz Records",
      "timestamp": "2019-10-31T19:09:38-05:00",
      "remote_id": "226185"
    },
    "2019-10-31T19:12:59-05:00-Rip Her To Shreds:Blondie": {
      "title": "Rip Her To Shreds",
      "artist": "Blondie",
      "album": "Blondie",
      "label": "Chrysalis",
      "timestamp": "2019-10-31T19:12:59-05:00",
      "remote_id": "226186"
    },
    "2019-10-31T19:16:33-05:00-I Won't BE Hanging Around:Flatt & Scruggs": {
      "title": "I Won't BE Hanging Around",
      "artist": "Flatt & Scruggs",
      "album": "Blue Ridge Cabin Home",
      "label": "CBS Special Products",
      "timestamp": "2019-10-31T19:16:33-05:00",
      "remote_id": "226187"
    },
    "2019-10-31T19:18:51-05:00-Drum Role:The Barry Altschul Quartet": {
      "title": "Drum Role",
      "artist": "The Barry Altschul Quartet",
      "album": "For Stu",
      "label": "Soul Note",
      "timestamp": "2019-10-31T19:18:51-05:00",
      "remote_id": "226188"
    },
    "2019-10-31T19:25:50-05:00-Blue:Lucinda Williams": {
      "title": "Blue",
      "artist": "Lucinda Williams",
      "album": "Essence",
      "label": "Lost Highway Records",
      "timestamp": "2019-10-31T19:25:50-05:00",
      "remote_id": "226189"
    },
    "2019-10-31T19:29:46-05:00-Something Beautiful:Trombone Shorty": {
      "title": "Something Beautiful",
      "artist": "Trombone Shorty",
      "album": "Backatown",
      "label": "Verve Forecast",
      "timestamp": "2019-10-31T19:29:46-05:00",
      "remote_id": "226190"
    },
    "2019-10-31T19:38:07-05:00-Miles Runs The Vodoo Down:Miles Davis": {
      "title": "Miles Runs The Vodoo Down",
      "artist": "Miles Davis",
      "album": "Bitches Brew - 40th Anniversary Legacy Edition",
      "label": "Sony/Columbia",
      "timestamp": "2019-10-31T19:38:07-05:00",
      "remote_id": "226191"
    },
    "2019-10-31T19:40:59-05:00-Hooligan:I Roy": {
      "title": "Hooligan",
      "artist": "I Roy",
      "album": "Touting I Self",
      "label": "Heartbeat",
      "timestamp": "2019-10-31T19:40:59-05:00",
      "remote_id": "226192"
    },
    "2019-10-31T19:44:34-05:00-We Used to Wait:Arcade Fire": {
      "title": "We Used to Wait",
      "artist": "Arcade Fire",
      "album": "\"The Suburbs\"",
      "label": "Merge Records",
      "timestamp": "2019-10-31T19:44:34-05:00",
      "remote_id": "226193"
    },
    "2019-10-31T19:51:46-05:00-Autumn Leaves:Cannonball  Adderley": {
      "title": "Autumn Leaves",
      "artist": "Cannonball  Adderley",
      "album": "Somethin' Else",
      "label": "Blue Note",
      "timestamp": "2019-10-31T19:51:46-05:00",
      "remote_id": "226194"
    },
    "2019-10-31T19:53:13-05:00-Delroy Wilson - I Want Justice:Various": {
      "title": "Delroy Wilson - I Want Justice",
      "artist": "Various",
      "album": "Studio One Ska",
      "label": "Soul Jazz Records",
      "timestamp": "2019-10-31T19:53:13-05:00",
      "remote_id": "226195"
    },
    "2019-10-31T20:03:13-05:00-Some Old Day:Flatt & Scruggs": {
      "title": "Some Old Day",
      "artist": "Flatt & Scruggs",
      "album": "Blue Ridge Cabin Home",
      "label": "CBS Special Products",
      "timestamp": "2019-10-31T20:03:13-05:00",
      "remote_id": "226196"
    },
    "2019-10-31T20:05:45-05:00-Furnace Room Lullaby:Neko Case & Her Boyfriends": {
      "title": "Furnace Room Lullaby",
      "artist": "Neko Case & Her Boyfriends",
      "album": "Furnace Room Lullaby",
      "label": "Bloodshot Records",
      "timestamp": "2019-10-31T20:05:45-05:00",
      "remote_id": "226197"
    },
    "2019-10-31T20:21:34-05:00-'Na sera 'e maggio:Mina": {
      "title": "'Na sera 'e maggio",
      "artist": "Mina",
      "album": "Briciole di baci",
      "label": "Replay Music",
      "timestamp": "2019-10-31T20:21:34-05:00",
      "remote_id": "226198"
    },
    "2019-10-31T20:22:26-05:00-Up and Running:Ian Hunter": {
      "title": "Up and Running",
      "artist": "Ian Hunter",
      "album": "Man Overboard",
      "label": "New West Records",
      "timestamp": "2019-10-31T20:22:26-05:00",
      "remote_id": "226199"
    },
    "2019-10-31T20:24:05-05:00-Pharaoh's Dance:Miles Davis": {
      "title": "Pharaoh's Dance",
      "artist": "Miles Davis",
      "album": "Bitches Brew - 40th Anniversary Legacy Edition]",
      "label": "Sony/Columbia",
      "timestamp": "2019-10-31T20:24:05-05:00",
      "remote_id": "226200"
    },
    "2019-10-31T20:27:45-05:00-Twist The Knife:Neko Case & Her Boyfriends": {
      "title": "Twist The Knife",
      "artist": "Neko Case & Her Boyfriends",
      "album": "Furnace Room Lullaby",
      "label": "Bloodshot Records",
      "timestamp": "2019-10-31T20:27:45-05:00",
      "remote_id": "226201"
    },
    "2019-10-31T20:29:32-05:00-Lonely girls:Lucinda Williams": {
      "title": "Lonely girls",
      "artist": "Lucinda Williams",
      "album": "Essence",
      "label": "Lost Highway Records",
      "timestamp": "2019-10-31T20:29:32-05:00",
      "remote_id": "226202"
    }
  }
}
